Day One in R
…
alison <- babynames %>%
  filter(name == "Alison" | name == "Allison") %>% 
  filter(sex == "F") 

The first bit makes a new dataset called alison that is a copy of the babynames dataset- the %>% tells you we are doing some other stuff to it later.

The second bit filters our babynames to only keep rows where the name is either Alison or Allison (read | as or.)

The third bit applies another filter to keep only those where sex is female.

Lets check out the data.

alison

# A tibble: 214 x 5
    year sex   name        n      prop
   <dbl> <chr> <chr>   <int>     <dbl>
 1 1905. F     Alison      7 0.0000226
 2 1907. F     Alison      5 0.0000148
 3 1908. F     Allison     6 0.0000169
 4 1910. F     Alison      5 0.0000119
 5 1910. F     Allison     5 0.0000119
 6 1911. F     Allison     9 0.0000204
 7 1912. F     Allison    12 0.0000205
 8 1912. F     Alison      9 0.0000153
 9 1913. F     Alison     12 0.0000183
10 1913. F     Allison     7 0.0000107
# ... with 204 more rows
…
