Lab 01: Nathan’s Hot-Dog Eating Contest
…
Either way you do it, check it out once read in and make sure it looks like this!

glimpse(hot_dogs)

Observations: 49
Variables: 4
$ year      <dbl> 2017, 2017, 2016, 2016, 2015, 2015, 2014, 2014, 2013...
$ gender    <fct> male, female, male, female, male, female, male, fema...
$ name      <chr> "Joey Chestnut", "Miki Sudo", "Joey Chestnut", "Miki...
$ num_eaten <dbl> 72.000, 41.000, 70.000, 38.000, 62.000, 38.000, 61.0...

hot_dogs

# A tibble: 49 x 4
    year gender name           num_eaten
   <dbl> <fct>  <chr>              <dbl>
 1 2017. male   Joey Chestnut       72.0
 2 2017. female Miki Sudo           41.0
 3 2016. male   Joey Chestnut       70.0
 4 2016. female Miki Sudo           38.0
 5 2015. male   Matthew Stonie      62.0
 6 2015. female Miki Sudo           38.0
 7 2014. male   Joey Chestnut       61.0
 8 2014. female Miki Sudo           34.0
 9 2013. male   Joey Chestnut       69.0
10 2013. female Sonya Thomas        36.8
# ... with 39 more rows

We’ll be wanting to somehow include information about whether a given year was before or after the incorporation of the competitive eating league, so let’s add an indicator field to the data using mutate(). Also, the data’s a little sketchy pre-1981 and for our purposes today we’ll be focusing on males only, so let’s do some filtering too:

hot_dogs <- hot_dogs %>% 
  mutate(post_ifoce = year >= 1997) %>% 
  filter(year >= 1981 & gender == 'male')
hot_dogs

# A tibble: 37 x 5
    year gender name           num_eaten post_ifoce
   <dbl> <fct>  <chr>              <dbl> <lgl>     
 1 2017. male   Joey Chestnut        72. TRUE      
 2 2016. male   Joey Chestnut        70. TRUE      
 3 2015. male   Matthew Stonie       62. TRUE      
 4 2014. male   Joey Chestnut        61. TRUE      
 5 2013. male   Joey Chestnut        69. TRUE      
 6 2012. male   Joey Chestnut        68. TRUE      
 7 2011. male   Joey Chestnut        62. TRUE      
 8 2010. male   Joey Chestnut        54. TRUE      
 9 2009. male   Joey Chestnut        68. TRUE      
10 2008. male   Joey Chestnut        59. TRUE      
# ... with 27 more rows
…
