Lab 02: MOMA Museum Tour
…
5 Challenge 1: Know your data

5.1 How many paintings?

How many rows/observations are in moma?

How many variables are in moma?

These questions can be answered using the dplyr function glimpse.

library(dplyr)
moma

# A tibble: 2,253 x 23
   title  artist  artist_bio artist_birth_ye… artist_death_ye… num_artists
   <chr>  <chr>   <chr>                 <dbl>            <dbl>       <dbl>
 1 Rope … Joan M… (Spanish,…            1893.            1983.          1.
 2 Fire … Paul K… (German, …            1879.            1940.          1.
 3 Portr… Paul K… (German, …            1879.            1940.          1.
 4 Guitar Pablo … (Spanish,…            1881.            1973.          1.
 5 Grand… Arthur… (American…            1880.            1946.          1.
 6 "\"M'… Franci… (French, …            1879.            1953.          1.
 7 Untit… Blinky… (German, …            1943.            1977.          1.
 8 Dayli… Pierre… (French, …            1880.            1950.          1.
 9 The B… Paul C… (French, …            1839.            1906.          1.
10 Synth… Enrico… (Italian,…            1894.            1956.          1.
# ... with 2,243 more rows, and 17 more variables: n_female_artists <dbl>,
#   n_male_artists <dbl>, artist_gender <chr>, year_acquired <dbl>,
#   year_created <dbl>, circumference_cm <lgl>, depth_cm <dbl>,
#   diameter_cm <lgl>, height_cm <dbl>, length_cm <lgl>, width_cm <dbl>,
#   seat_height_cm <lgl>, purchase <lgl>, gift <lgl>, exchange <lgl>,
#   classification <chr>, department <chr>
…
What is the earliest painting ever acquired by MOMA?

Which year?

Which artist?

What title?

These questions can be answered by combining two dplyr functions: select and arrange.

moma %>% 
  select(artist, title, year_acquired) %>% 
  arrange(year_acquired)

# A tibble: 2,253 x 3
   artist            title                                   year_acquired
   <chr>             <chr>                                           <dbl>
 1 Edward Hopper     House by the Railroad                           1930.
 2 Bernard Karfiol   Seated Nude                                     1930.
 3 Pierre Roy        Daylight Savings Time                           1931.
 4 Preston Dickinson Plums on a Plate                                1931.
 5 Otto Dix          Dr. Mayer-Hermann                               1932.
 6 Paul Cézanne      The Bather                                      1934.
 7 Paul Cézanne      Pines and Rocks (Fontainebleau?)                1934.
 8 Paul Cézanne      Still Life with Ginger Jar, Sugar Bowl…         1934.
 9 Paul Cézanne      Still Life with Apples                          1934.
10 Arthur B. Davies  Italian Landscape                               1934.
# ... with 2,243 more rows
…
What is the earliest painting ever created in the MOMA collection historically (oldest painting)?

Which year?

Which artist?

What title?

These questions can be answered by combining two dplyr functions: select and arrange.

moma %>% 
  select(artist, title, year_created) %>% 
  arrange(year_created)

# A tibble: 2,253 x 3
   artist       title                                    year_created
   <chr>        <chr>                                           <dbl>
 1 Odilon Redon Landscape at Daybreak                           1872.
 2 Odilon Redon Apache (Man on Horseback)                       1875.
 3 Odilon Redon Apache (Man on Horseback II)                    1875.
 4 Odilon Redon Fishing Boat                                    1875.
 5 Odilon Redon Rocky Peak                                      1875.
 6 Odilon Redon The Rocky Slope                                 1875.
 7 Odilon Redon Landscape with Rocks, near Royan                1875.
 8 Paul Cézanne Still Life with Fruit Dish                      1879.
 9 Paul Cézanne L'Estaque                                       1879.
10 Claude Monet On the Cliff at Pourville, Clear Weather        1882.
# ... with 2,243 more rows

To do inline comments, I could say that the oldest painting is Landscape at Daybreak, painted by Odilon Redon in 1872.

5.4 How many artists?

How many distinct artists are there?

Try dplyr::distinct.

moma %>% 
  distinct(artist)

# A tibble: 989 x 1
   artist           
   <chr>            
 1 Joan Miró        
 2 Paul Klee        
 3 Pablo Picasso    
 4 Arthur Dove      
 5 Francis Picabia  
 6 Blinky Palermo   
 7 Pierre Roy       
 8 Paul Cézanne     
 9 Enrico Prampolini
10 Jankel Adler     
# ... with 979 more rows

5.5 How many paintings per artist?

Which artist has the most paintings ever owned by moma?

How many were there by that artist?

Try dplyr::count. Use ?count to figure out how to sort the output.

moma %>% 
  count(artist, sort = TRUE)

# A tibble: 989 x 2
   artist               n
   <chr>            <int>
 1 Pablo Picasso       55
 2 Henri Matisse       32
 3 On Kawara           32
 4 Jacob Lawrence      30
 5 Batiste Madalena    25
 6 Jean Dubuffet       25
 7 Odilon Redon        25
 8 Ben Vautier         24
 9 Frank Stella        23
10 Philip Guston       23
# ... with 979 more rows

5.6 In what year were the most paintings acquired?

Try dplyr::count. Use ?count to figure out how to sort the output.

moma %>% 
  count(year_acquired, sort = TRUE)

# A tibble: 88 x 2
   year_acquired     n
           <dbl> <int>
 1         1985.    86
 2         1942.    71
 3         1979.    71
 4         1991.    67
 5         2005.    67
 6         1967.    65
 7         2008.    55
 8         1961.    45
 9         1969.    45
10         1956.    42
# ... with 78 more rows

5.7 In what year were the most paintings created?

Try dplyr::count. Use ?count to figure out how to sort the output.

moma %>% 
  count(year_created, sort = TRUE)

# A tibble: 139 x 2
   year_created     n
          <dbl> <int>
 1        1977.    57
 2        1940.    56
 3        1964.    56
 4        1961.    50
 5        1962.    49
 6        1963.    44
 7        1959.    42
 8        1968.    40
 9        1960.    39
10        1914.    37
# ... with 129 more rows

5.8 What about first painting by a solo female artist?

Try combining three dplyr functions: filter, select, and arrange. Try year_acquired and year_created!

moma %>% 
  filter(num_artists == 1 & n_female_artists == 1) %>% 
  select(title, artist, year_acquired, year_created) %>% 
  arrange(year_acquired)

# A tibble: 252 x 4
   title                           artist       year_acquired year_created
   <chr>                           <chr>                <dbl>        <dbl>
 1 Landscape, 47                   Natalia Gon…         1937.        1912.
 2 Shack                           Loren MacIv…         1938.        1934.
 3 Hopscotch                       Loren MacIv…         1940.        1940.
 4 Shadows with Painting           Irene Rice …         1941.        1940.
 5 Figure                          Varvara Ste…         1941.        1921.
 6 Still Life in Red               Amelia Pelá…         1942.        1938.
 7 White Lines                     Irene Rice …         1942.        1942.
 8 Musical Squash                  Maud Morgan          1942.        1942.
 9 Desolation                      Raquel Forn…         1942.        1942.
10 Self-Portrait with Cropped Hair Frida Kahlo          1943.        1940.
# ... with 242 more rows

moma %>% 
  filter(num_artists == 1 & n_female_artists == 1) %>% 
  select(title, artist, year_acquired, year_created) %>% 
  arrange(year_created)

# A tibble: 252 x 4
   title                          artist        year_acquired year_created
   <chr>                          <chr>                 <dbl>        <dbl>
 1 Self-Portrait with Two Flower… Paula Moders…         2017.        1907.
 2 Girl with Bare Shoulders       Gwen John             1958.        1909.
 3 Girl Reading at a Window       Gwen John             1971.        1911.
 4 Landscape, 47                  Natalia Gonc…         1937.        1912.
 5 Cubist Nude                    Alexandra Ex…         1991.        1912.
 6 Rayonism, Blue-Green Forest    Natalia Gonc…         1985.        1913.
 7 The Factory and the Bridge     Olga Rozanova         1985.        1913.
 8 Subject from a Dyer's Shop     Lyubov Popova         1985.        1914.
 9 Portuguese Market              Sonia Delaun…         1955.        1915.
10 Girl with a Blue Scarf         Gwen John             1963.        1915.
# ... with 242 more rows
…
