Lab 05: Fonts & Tables
…
times <- flights %>% 
  select(contains("time"))
glimpse(times)

Observations: 162,049
Variables: 3
$ dep_time <int> 1, 4, 8, 28, 34, 37, 346, 526, 527, 536, 541, 549, 55...
$ arr_time <int> 235, 738, 548, 800, 325, 747, 936, 1148, 917, 1334, 9...
$ air_time <dbl> 194, 252, 201, 251, 201, 224, 202, 217, 136, 268, 130...

# here I am not creating a new dataframe
flights %>%
  select(-contains("time"))

# A tibble: 162,049 x 13
    year month   day dep_delay arr_delay carrier tailnum flight origin
   <int> <int> <int>     <dbl>     <dbl> <chr>   <chr>    <int> <chr> 
 1  2014     1     1       96.       70. AS      N508AS     145 PDX   
 2  2014     1     1       -6.      -23. US      N195UW    1830 SEA   
 3  2014     1     1       13.       -4. UA      N37422    1609 PDX   
 4  2014     1     1       -2.      -23. US      N547UW     466 PDX   
 5  2014     1     1       44.       43. AS      N762AS     121 SEA   
 6  2014     1     1       82.       88. DL      N806DN    1823 SEA   
 7  2014     1     1      227.      219. UA      N14219    1481 SEA   
 8  2014     1     1       -4.       15. UA      N813UA     229 PDX   
 9  2014     1     1        7.       24. UA      N75433    1576 SEA   
10  2014     1     1        1.       -6. UA      N574UA     478 SEA   
# ... with 162,039 more rows, and 4 more variables: dest <chr>,
#   distance <dbl>, hour <dbl>, minute <dbl>
…
range(delay_bwn$dep_delay, na.rm = TRUE)

[1]  60 119

5.1.3 dplyr::arrange

# default is ascending order
flights %>% 
  arrange(year, month, day)

# A tibble: 162,049 x 16
    year month   day dep_time dep_delay arr_time arr_delay carrier tailnum
   <int> <int> <int>    <int>     <dbl>    <int>     <dbl> <chr>   <chr>  
 1  2014     1     1        1       96.      235       70. AS      N508AS 
 2  2014     1     1        4       -6.      738      -23. US      N195UW 
 3  2014     1     1        8       13.      548       -4. UA      N37422 
 4  2014     1     1       28       -2.      800      -23. US      N547UW 
 5  2014     1     1       34       44.      325       43. AS      N762AS 
 6  2014     1     1       37       82.      747       88. DL      N806DN 
 7  2014     1     1      346      227.      936      219. UA      N14219 
 8  2014     1     1      526       -4.     1148       15. UA      N813UA 
 9  2014     1     1      527        7.      917       24. UA      N75433 
10  2014     1     1      536        1.     1334       -6. UA      N574UA 
# ... with 162,039 more rows, and 7 more variables: flight <int>,
#   origin <chr>, dest <chr>, air_time <dbl>, distance <dbl>, hour <dbl>,
#   minute <dbl>

# descending order
flights %>% 
  arrange(desc(year), desc(month), desc(day))

# A tibble: 162,049 x 16
    year month   day dep_time dep_delay arr_time arr_delay carrier tailnum
   <int> <int> <int>    <int>     <dbl>    <int>     <dbl> <chr>   <chr>  
 1  2014    12    31        2       12.      601       31. AA      N3JKAA 
 2  2014    12    31       27       -3.      623        3. AA      N3EWAA 
 3  2014    12    31       39       14.      324        4. AS      N762AS 
 4  2014    12    31       40        0.      549        0. DL      N757AT 
 5  2014    12    31       52       -8.      917      -21. AA      N3JFAA 
 6  2014    12    31       54        4.      621       17. DL      N128DL 
 7  2014    12    31       56       61.      848       80. DL      N655DL 
 8  2014    12    31      512       -3.      904        4. US      N653AW 
 9  2014    12    31      515       -5.      855        5. US      N580UW 
10  2014    12    31      534        4.      859        7. UA      N34460 
# ... with 162,039 more rows, and 7 more variables: flight <int>,
#   origin <chr>, dest <chr>, air_time <dbl>, distance <dbl>, hour <dbl>,
#   minute <dbl>

5.1.4 dplyr::distinct

# all unique origin-dest combinations
flights %>% 
  select(origin, dest) %>% 
  distinct

# A tibble: 115 x 2
   origin dest 
   <chr>  <chr>
 1 PDX    ANC  
 2 SEA    CLT  
 3 PDX    IAH  
 4 PDX    CLT  
 5 SEA    ANC  
 6 SEA    DTW  
 7 SEA    ORD  
 8 SEA    DEN  
 9 SEA    EWR  
10 PDX    DEN  
# ... with 105 more rows
…
5.1.5 dplyr::mutate

# add total delay variable
flights %>%
  mutate(tot_delay = dep_delay + arr_delay) %>%
  select(origin, dest, ends_with("delay"), everything())

# A tibble: 162,049 x 17
   origin dest  dep_delay arr_delay tot_delay  year month   day dep_time
   <chr>  <chr>     <dbl>     <dbl>     <dbl> <int> <int> <int>    <int>
 1 PDX    ANC         96.       70.      166.  2014     1     1        1
 2 SEA    CLT         -6.      -23.      -29.  2014     1     1        4
 3 PDX    IAH         13.       -4.        9.  2014     1     1        8
 4 PDX    CLT         -2.      -23.      -25.  2014     1     1       28
 5 SEA    ANC         44.       43.       87.  2014     1     1       34
 6 SEA    DTW         82.       88.      170.  2014     1     1       37
 7 SEA    ORD        227.      219.      446.  2014     1     1      346
 8 PDX    IAH         -4.       15.       11.  2014     1     1      526
 9 SEA    DEN          7.       24.       31.  2014     1     1      527
10 SEA    EWR          1.       -6.       -5.  2014     1     1      536
# ... with 162,039 more rows, and 8 more variables: arr_time <int>,
#   carrier <chr>, tailnum <chr>, flight <int>, air_time <dbl>,
#   distance <dbl>, hour <dbl>, minute <dbl>
…
