Lab 03: CS631
…
- <font color="#ED1941">Create a new variable with a specific value</font>  

- Create a new variable based on other variables 

- Change the contents of an existing variable

--

```r
sounds %>% 
  mutate(form = "WS")
```

```
# A tibble: 33 x 5
     age sound          kids_produce kids_respond form 
   <dbl> <chr>                 <dbl>        <dbl> <chr>
 1    8. cockadoodledoo           1.          35. WS   
 2    8. meow                     0.          35. WS   
 3    8. woof woof                3.          35. WS   
 4    9. cockadoodledoo           0.          91. WS   
 5    9. meow                     2.          93. WS   
 6    9. woof woof                2.          93. WS   
 7   10. cockadoodledoo           0.         139. WS   
 8   10. meow                     5.         145. WS   
 9   10. woof woof                4.         143. WS   
10   11. cockadoodledoo           0.          94. WS   
# ... with 23 more rows
```
…
- Create a new variable with a specific value

- <font color="#ED1941">Create a new variable based on other variables</font> 

- Change the contents of an existing variable

--

```r
sounds %>% 
  mutate(prop_produce = kids_produce / kids_respond)
```

```
# A tibble: 33 x 5
     age sound          kids_produce kids_respond prop_produce
   <dbl> <chr>                 <dbl>        <dbl>        <dbl>
 1    8. cockadoodledoo           1.          35.       0.0286
 2    8. meow                     0.          35.       0.    
 3    8. woof woof                3.          35.       0.0857
 4    9. cockadoodledoo           0.          91.       0.    
 5    9. meow                     2.          93.       0.0215
 6    9. woof woof                2.          93.       0.0215
 7   10. cockadoodledoo           0.         139.       0.    
 8   10. meow                     5.         145.       0.0345
 9   10. woof woof                4.         143.       0.0280
10   11. cockadoodledoo           0.          94.       0.    
# ... with 23 more rows
```
…
- Create a new variable with a specific value

- Create a new variable based on other variables

- <font color="#ED1941">Change the contents of an existing variable</font> 

--

```r
sounds %>% 
  mutate(prop_produce = prop_produce * 100)
```

```
# A tibble: 33 x 5
     age sound          kids_produce kids_respond prop_produce
   <dbl> <chr>                 <dbl>        <dbl>        <dbl>
 1    8. cockadoodledoo           1.          35.         2.86
 2    8. meow                     0.          35.         0.  
 3    8. woof woof                3.          35.         8.57
 4    9. cockadoodledoo           0.          91.         0.  
 5    9. meow                     2.          93.         2.15
 6    9. woof woof                2.          93.         2.15
 7   10. cockadoodledoo           0.         139.         0.  
 8   10. meow                     5.         145.         3.45
 9   10. woof woof                4.         143.         2.80
10   11. cockadoodledoo           0.          94.         0.  
# ... with 23 more rows
```
…
