Lab 04: CS631
…
---

# Finally tidy cakes

```r
cakes_tidy <- cakes_untidy %>% 
  gather(bake_type, num_bakes, cake:pie_tart, 
         factor_key = TRUE) %>% 
  arrange(series)
cakes_tidy
```

```
# A tibble: 32 x 4
   series challenge   bake_type num_bakes
   <fct>  <chr>       <fct>         <dbl>
 1 1      showstopper cake             5.
 2 1      signature   cake            12.
 3 1      showstopper pie_tart         5.
 4 1      signature   pie_tart         4.
 5 2      showstopper cake             8.
 6 2      signature   cake            21.
 7 2      showstopper pie_tart        17.
 8 2      signature   pie_tart         7.
 9 3      showstopper cake            12.
10 3      signature   cake            24.
# ... with 22 more rows
```
…
